{
    "t_win": 120,
    "n_max_picks": 100,
    "batch_size": 2048,
    "n_min_nucl": 7,
    "n_min_merge": 6,
    "n_min_det": 7,
    "avg_eve_sep": 12,
    "device": "cuda:2",
    "model_file": "pr_vzmodel_PRSN_phaselink/model_068_0.029060.pt",
    "station_file": "pr_stations_PhaseLink.txt",
    "station_map_file": "/atomic-data/cyoon/PuertoRico/PL_out/station_map.pkl",
    "sncl_map_file": "/atomic-data/cyoon/PuertoRico/PL_out/sncl_map.pkl",
    "nlloc_loc_path": "nll_loc/2020",
    "outfile": "/home/cyoon/PuertoRico/PL/output/PhaseLink_EQT_20191228_20200114_pr_vzmodel_PRSN_nmin_det7_merge6_nucl7.nlloc",
    "gpd_file": "/home/cyoon/PuertoRico/PL/input/GPD_EQT_20191228_20200114_picks.out",
    "pr_min": 0.00,
    "trig_dur_min": 0.00,
    "nlloc_sum_file": "imperial.sum.grid0.loc.hyp",
    "wf_path": "/atomic-data/cyoon/PuertoRico/downloads_mseeds/",
    "plot_unassociated": false,
    "max_t_resid": 10.0,
    "plot_seismicity": true,
    "training_dset_X": "/atomic-data/cyoon/PuertoRico/PL_out/pr2020_train_X_pr_vzmodel_PRSN.npy",
    "training_dset_Y": "/atomic-data/cyoon/PuertoRico/PL_out/pr2020_train_Y_pr_vzmodel_PRSN.npy",
    "n_train_samp": 1000000,
    "lat_min": 17.5,
    "lat_max": 18.5,
    "lon_min": -67.5,
    "lon_max": -65.0,
    "random_sta_locs": false,
    "z_min": -1,
    "z_max": 40,
    "n_x_nodes": 50,
    "n_y_nodes": 50,
    "n_z_nodes": 10,
    "t_repick": 6.0,
    "min_sep": 0.75,
    "catalog_file": "misc/imperial_noreloc.cat",
    "fault_file": "/home/zross/src/fault_files/Qt_flt_v2-0latlonNAD27.MIF",
    "tt_table": {
        "P": "TT/TT.pr_vzmodel_PRSN.pg",
        "S": "TT/TT.pr_vzmodel_PRSN.sg"
    },
    "datum": 0.0,
    "n_fake": 100,
    "n_threads": 30,
    "max_event_depth": 40.0,
    "min_hypo_dist": 5.0,
    "max_hypo_dist": 200.0,
    "max_pick_error": 0.50,
    "max_pick_dist": 200.0,
    "back_project": true 
}
